code,budget
EXP_,3474.790833333334
EXP__raw,0.0
rh,1302.9083333333335
heal,292.29833333333323
aa,340.94
gf,701.6841666666668
mi,836.96
mi_raw,576.8408333333333
fr,25.92833333333334
ski,149.48749999999998
dog,84.70333333333335
